Row,IsBetaEasy
1,1
2,1
3,1
4,1
5,1
6,1
7,0
8,0
9,1
10,0
11,1
12,1
13,0
14,1
15,1
16,0
17,0
18,0
19,1
20,0
21,1
22,1
23,1
24,0
25,1
26,0
27,1
28,1
29,1
30,1
31,1
32,1
33,1
34,1
35,1
36,1
37,0
38,0
39,0
40,1
41,0
42,0
43,1
44,1
45,0
46,1
47,1
48,1
49,0
50,1
51,1
52,1
53,1
54,1
55,0
56,1
57,1
58,0
59,0
60,1
61,1
62,0
63,1
64,1
65,0
66,1
67,0
68,1
69,1
70,1
71,0
72,1
73,1
74,1
75,1
76,1
77,1
78,1
79,1
80,1
81,1
82,1
83,1
84,1
85,1
86,1
87,0
88,1
89,1
90,1
91,1
92,1
93,1
94,0
95,1
96,0
97,1
98,1
99,1
100,1
101,1
102,1
103,1
104,1
105,1
106,1
107,1
108,1
109,1
110,0
111,1
112,1
113,1
114,1
115,1
116,1
117,0
118,1
119,1
120,1
121,1
122,1
123,1
124,1
125,0
126,0
127,1
128,1
129,0
130,0
131,1
132,1
133,1
134,1
135,1
136,1
137,1
138,1
139,1
140,1
141,1
142,1
143,1
144,0
145,1
146,1
147,1
148,1
149,0
150,1
151,1
152,1
153,1
154,1
155,1
156,1
157,1
158,1
159,1
160,1
161,1
162,1
163,1
164,1
165,0
166,0
167,1
168,1
169,1
170,1
171,0
172,0
173,1
174,1
175,1
176,1
177,1
178,1
179,0
180,1
181,1
182,1
183,1
184,1
185,1
186,1
187,1
188,1
189,0
190,0
191,1
192,1
193,1
194,1
195,1
196,1
197,1
198,0
199,0
200,0
201,1
202,1
203,1
204,1
205,1
206,1
207,1
208,1
209,1
210,1
211,1
212,0
213,0
214,0
215,0
216,1
217,0
218,1
219,0
220,0
221,1
222,1
223,1
224,0
225,1
226,1
227,1
228,1
229,0
230,1
231,1
232,1
233,1
234,1
235,1
236,1
237,1
238,1
239,1
240,1
241,1
242,1
243,0
244,0
245,1
246,1
247,1
248,0
249,0
250,1
251,1
252,1
253,1
254,1
255,0
256,0
257,1
258,1
259,0
260,1
261,0
262,1
263,1
264,1
265,0
266,1
267,1
268,0
269,1
270,0
271,1
272,1
273,1
274,1
275,1
276,1
277,0
278,1
279,1
280,1
281,1
282,0
283,1
284,1
285,0
286,1
287,0
288,0
289,1
290,1
291,1
292,0
293,1
294,0
295,1
296,0
297,0
298,1
299,0
300,1
301,1
302,0
303,1
304,1
305,1
306,1
307,1
308,1
309,0
310,0
311,1
312,1
313,0
314,1
315,1
316,1
317,1
318,1
319,1
320,1
321,1
322,0
323,0
324,1
325,1
326,1
327,0
328,0
329,0
330,1
331,1
332,1
333,1
334,1
335,1
336,0
337,0
338,0
339,1
340,1
341,1
342,1
343,1
344,1
345,1
346,0
347,1
348,1
349,1
350,0
351,1
352,1
353,1
354,1
355,1
356,1
357,0
358,1
359,1
360,1
361,1
362,0
363,1
364,1
365,0
366,1
367,0
368,1
369,1
370,0
371,1
372,1
373,1
374,1
375,1
376,1
377,1
378,1
379,1
380,1
381,1
382,1
383,1
384,1
385,1
386,1
387,0
388,0
389,1
390,1
391,1
392,1
393,1
394,1
395,1
396,1
397,1
398,0
399,1
400,1
401,0
402,1
403,0
404,1
405,1
406,1
407,0
408,1
409,1
410,1
411,1
412,1
413,0
414,1
415,0
416,1
417,1
418,1
419,1
420,0
421,1
422,1
423,1
424,1
425,1
426,1
427,1
428,1
429,1
430,0
431,1
432,1
433,1
434,1
435,1
436,1
437,0
438,1
439,1
440,1
441,1
442,1
443,1
444,0
445,0
446,1
447,1
448,1
449,0
450,1
451,1
452,0
453,1
454,1
455,1
456,1
457,1
458,1
459,1
460,1
461,1
462,1
463,1
464,1
465,1
466,1
467,1
468,1
469,1
470,0
471,0
472,1
473,1
474,1
475,1
476,1
477,0
478,1
479,1
480,1
481,1
482,1
483,1
484,1
485,1
486,0
487,1
488,0
489,1
490,0
491,1
492,1
493,1
494,0
495,1
496,0
497,1
498,1
499,1
500,0
501,1
502,1
503,0
504,1
505,1
506,1
507,1
508,1
509,1
510,1
511,0
512,1
513,1
514,1
515,1
516,1
517,1
518,0
519,1
520,1
521,1
522,1
523,1
524,1
525,1
526,1
527,1
528,1
529,1
530,1
531,1
532,1
533,1
534,1
535,1
536,1
537,1
538,1
539,1
540,0
541,1
542,0
543,0
544,1
545,1
546,1
547,1
548,1
549,0
550,0
551,1
552,1
553,1
554,1
555,1
556,1
557,1
558,1
559,0
560,1
561,0
562,1
563,1
564,1
565,1
566,1
567,1
568,1
569,0
570,0
571,1
572,1
573,1
574,1
575,1
576,1
577,1
578,0
579,1
580,1
581,0
582,1
583,1
584,1
585,1
586,1
587,1
588,1
589,1
590,1
591,1
592,1
593,0
594,1
595,0
596,1
597,1
598,1
599,1
600,1
601,1
602,1
603,1
604,1
605,1
606,1
607,1
608,1
609,1
610,1
611,1
612,1
613,1
614,1
615,1
616,1
617,1
618,1
619,1
620,0
621,1
622,1
623,0
624,1
625,1
626,1
627,1
628,1
629,1
630,1
631,0
632,1
633,1
634,1
635,1
636,0
637,1
638,1
639,0
640,1
641,1
642,1
643,0
644,1
645,1
646,0
647,0
648,1
649,0
650,1
651,1
652,1
653,1
654,1
655,1
656,1
657,1
658,0
659,0
660,0
661,0
662,1
663,1
664,1
665,0
666,1
667,0
668,0
669,1
670,0
671,0
672,1
673,1
674,0
675,1
676,1
677,0
678,1
679,0
680,1
681,1
682,1
683,1
684,0
685,1
686,1
687,1
688,1
689,1
690,1
691,1
692,1
693,1
694,1
695,1
696,0
697,1
698,1
699,1
700,0
701,1
702,0
703,1
704,0
705,1
706,1
707,0
708,1
709,1
710,0
711,1
712,1
713,1
714,1
715,1
716,1
717,1
718,1
719,1
720,0
721,1
722,1
723,0
724,1
725,1
726,1
727,1
728,1
729,1
730,1
731,0
732,0
733,1
734,1
735,1
736,1
737,1
738,1
739,1
740,0
741,1
742,1
743,1
744,1
745,0
746,1
747,1
748,1
749,1
750,1
751,0
752,1
753,1
754,1
755,1
756,0
757,1
758,0
759,1
760,1
761,1
762,1
763,1
764,1
765,1
766,1
767,0
768,1
