Row,Best_Algorithm
1,7
2,7
3,7
4,3
5,3
6,1
7,4
8,2
9,7
10,1
11,5
12,2
13,1
14,5
15,1
16,5
17,1
18,1
19,5
20,1
21,1
22,2
23,7
24,2
25,4
26,3
27,6
28,7
29,1
30,6
31,7
32,5
33,7
34,3
35,6
36,4
37,3
38,5
39,3
40,7
41,6
42,6
43,6
44,7
45,3
46,3
47,4
48,7
49,1
50,6
51,3
52,5
53,7
54,7
55,6
56,6
57,7
58,4
59,7
60,7
61,3
62,2
63,6
64,2
65,1
66,7
67,2
68,4
69,3
70,4
71,3
72,2
73,6
74,5
75,7
76,6
77,3
78,2
79,7
80,5
81,6
82,6
83,6
84,6
85,7
86,7
87,1
88,1
89,4
90,5
91,3
92,4
93,6
94,6
95,5
96,6
97,7
98,3
99,5
100,5
101,5
102,5
103,3
104,3
105,2
106,5
107,3
108,1
109,7
110,4
111,4
112,7
113,7
114,6
115,2
116,1
117,1
118,2
119,5
120,2
121,6
122,2
123,5
124,1
125,2
126,4
127,2
128,5
129,5
130,1
131,1
132,5
133,5
134,1
135,2
136,4
137,5
138,5
139,4
140,1
141,5
142,7
143,5
144,1
145,1
146,6
147,6
148,4
149,6
150,5
151,7
152,1
153,7
154,1
155,3
156,4
157,2
158,5
159,7
160,3
161,4
162,7
163,7
164,2
165,5
166,1
167,1
168,4
169,4
170,7
171,2
172,4
173,6
174,7
175,7
176,5
177,6
178,4
179,5
180,2
181,3
182,5
183,3
184,2
185,4
186,7
187,7
188,1
189,2
190,2
191,5
192,7
193,2
194,6
195,6
196,2
197,5
198,4
199,1
200,7
201,4
202,1
203,7
204,3
205,6
206,2
207,7
208,2
209,7
210,1
211,7
212,3
213,2
214,1
215,5
216,7
217,3
218,6
219,7
220,1
221,2
222,6
223,2
224,1
225,2
226,7
227,3
228,1
229,7
230,2
231,6
232,1
233,6
234,5
235,7
236,7
237,7
238,7
239,7
240,6
241,7
242,7
243,7
244,7
245,4
246,3
247,7
248,1
249,6
250,7
251,7
252,4
253,3
254,7
255,2
256,5
257,7
258,5
259,5
260,3
261,6
262,5
263,5
264,5
265,1
266,2
267,1
268,2
269,2
270,7
271,5
272,2
273,4
274,3
275,7
276,5
277,6
278,5
279,1
280,2
281,5
282,6
283,4
284,1
285,2
286,1
287,6
288,2
289,2
290,5
291,3
292,3
293,5
294,3
295,5
296,2
297,2
298,4
299,5
300,1
301,7
302,2
303,7
304,6
305,4
306,5
307,2
308,5
309,2
310,5
311,2
312,1
313,7
314,1
315,1
316,5
317,6
318,1
319,7
320,4
321,4
322,6
323,2
324,7
325,7
326,4
327,2
328,2
329,3
330,7
331,1
332,7
333,7
334,2
335,7
336,5
337,6
338,5
339,5
340,7
341,7
342,3
343,6
344,1
345,7
346,1
347,5
348,1
349,7
350,1
351,5
352,1
353,6
354,5
355,2
356,5
357,2
358,3
359,5
360,7
361,7
362,6
363,6
364,4
365,6
366,7
367,5
368,3
369,3
370,5
371,3
372,6
373,7
374,5
375,2
376,4
377,3
378,5
379,6
380,4
381,5
382,3
383,2
384,2
385,7
386,2
387,5
388,3
389,1
390,4
391,7
392,6
393,2
394,1
395,5
396,1
397,5
398,2
399,6
400,7
401,2
402,2
403,2
404,6
405,1
406,2
407,1
408,3
409,7
410,4
411,4
412,7
413,5
414,5
415,2
416,2
417,5
418,7
419,3
420,6
421,2
422,7
423,2
424,7
425,4
426,7
427,3
428,5
429,4
430,5
431,2
432,7
433,3
434,1
435,2
436,4
437,2
438,2
439,3
440,4
441,7
442,7
443,7
444,5
445,1
446,3
447,7
448,7
449,6
450,7
451,3
452,6
453,7
454,2
455,5
456,6
457,2
458,7
459,7
460,2
461,1
462,6
463,1
464,6
465,1
466,7
467,3
468,7
469,5
470,2
471,3
472,4
473,1
474,7
475,6
476,1
477,5
478,4
479,1
480,7
481,5
482,4
483,7
484,7
485,7
486,2
487,5
488,1
489,7
490,5
491,5
492,7
493,7
494,1
495,6
496,1
497,5
498,7
499,3
500,2
501,7
502,7
503,5
504,2
505,5
506,5
507,1
508,7
509,7
510,7
511,3
512,5
513,7
514,2
515,2
516,2
517,5
518,1
519,4
520,4
521,7
522,7
523,6
524,5
525,5
526,3
527,3
528,2
529,7
530,5
531,5
532,5
533,4
534,1
535,6
536,4
537,3
538,3
539,4
540,5
541,5
542,2
543,5
544,2
545,7
546,7
547,7
548,4
549,3
550,5
551,5
552,7
553,7
554,7
555,7
556,4
557,7
558,7
559,1
560,4
561,2
562,7
563,7
564,4
565,3
566,2
567,5
568,7
569,3
570,1
571,6
572,5
573,1
574,7
575,4
576,2
577,1
578,6
579,1
580,3
581,7
582,2
583,5
584,6
585,5
586,2
587,5
588,2
589,7
590,6
591,5
592,1
593,1
594,5
595,6
596,4
597,3
598,5
599,7
600,5
601,3
602,2
603,4
604,7
605,4
606,5
607,3
608,3
609,1
610,3
611,5
612,1
613,7
614,6
615,4
616,3
617,4
618,6
619,2
620,1
621,4
622,2
623,2
624,5
625,5
626,4
627,5
628,4
629,7
630,5
631,1
632,7
633,2
634,7
635,6
636,6
637,7
638,7
639,1
640,3
641,3
642,4
643,4
644,1
645,1
646,4
647,7
648,1
649,5
650,7
651,7
652,5
653,7
654,2
655,7
656,2
657,3
658,6
659,1
660,5
661,7
662,6
663,5
664,7
665,2
666,7
667,6
668,2
669,6
670,6
671,6
672,5
673,6
674,5
675,5
676,7
677,4
678,3
679,7
680,7
681,3
682,4
683,1
684,2
685,6
686,7
687,5
688,7
689,5
690,5
691,4
692,4
693,1
694,4
695,3
696,7
697,1
698,5
699,5
700,1
701,5
702,6
703,2
704,3
705,7
706,6
707,2
708,2
709,7
710,3
711,4
712,4
713,4
714,5
715,6
716,3
717,5
718,2
719,7
720,5
721,6
722,5
723,5
724,5
725,4
726,5
727,1
728,4
729,4
730,3
731,2
732,6
733,7
734,5
735,2
736,1
737,5
738,6
739,7
740,7
741,7
742,7
743,5
744,5
745,1
746,6
747,4
748,4
749,7
750,4
751,1
752,1
753,7
754,2
755,4
756,1
757,1
758,1
759,5
760,6
761,5
762,7
763,6
764,5
765,1
766,2
767,2
768,7
