Row,z_1,z_2
0,1.2140535823078396,1.0354088539056834
1,1.1936964660764122,1.0389621852132322
2,1.2474701251822327,0.9809382128404199
3,,
4,-0.960142555286628,1.440622028874853
5,-0.9692297321729032,1.372224163285559
6,-0.6979614866345218,1.441597419104671
